[{"page":1,"pages":9,"per_page":8,"total":66,"sourceid":"2","lastupdated":"2026-07-01"},[{"indicator":{"id":"NY.GDP.MKTP.CD","value":"GDP (current US$)"},"country":{"id":"US","value":"United States"},"countryiso3code":"USA","date":"2025","value":30769700000000,"unit":"","obs_status":"","decimal":0},{"indicator":{"id":"NY.GDP.MKTP.CD","value":"GDP (current US$)"},"country":{"id":"US","value":"United States"},"countryiso3code":"USA","date":"2024","value":29298013000000,"unit":"","obs_status":"","decimal":0},{"indicator":{"id":"NY.GDP.MKTP.CD","value":"GDP (current US$)"},"country":{"id":"US","value":"United States"},"countryiso3code":"USA","date":"2023","value":27811517000000,"unit":"","obs_status":"","decimal":0},{"indicator":{"id":"NY.GDP.MKTP.CD","value":"GDP (current US$)"},"country":{"id":"US","value":"United States"},"countryiso3code":"USA","date":"2022","value":26054614000000,"unit":"","obs_status":"","decimal":0},{"indicator":{"id":"NY.GDP.MKTP.CD","value":"GDP (current US$)"},"country":{"id":"US","value":"United States"},"countryiso3code":"USA","date":"2021","value":23725645000000,"unit":"","obs_status":"","decimal":0},{"indicator":{"id":"NY.GDP.MKTP.CD","value":"GDP (current US$)"},"country":{"id":"US","value":"United States"},"countryiso3code":"USA","date":"2020","value":21375281000000,"unit":"","obs_status":"","decimal":0},{"indicator":{"id":"NY.GDP.MKTP.CD","value":"GDP (current US$)"},"country":{"id":"US","value":"United States"},"countryiso3code":"USA","date":"2019","value":21539982000000,"unit":"","obs_status":"","decimal":0},{"indicator":{"id":"NY.GDP.MKTP.CD","value":"GDP (current US$)"},"country":{"id":"US","value":"United States"},"countryiso3code":"USA","date":"2018","value":20656516000000,"unit":"","obs_status":"","decimal":0}]]